…
    ## -- Conflicts ------------------------------------------ tidyverse_conflicts() --
    ## x dplyr::filter() masks stats::filter()
    ## x dplyr::lag()    masks stats::lag()

``` r
iris <- as_tibble(iris)

iris1 <- rename(iris, sepal_length = Sepal.Length, sepal_width = Sepal.Width, petal_length = Petal.Length, petal_width = Petal.Width, species = Species) 

iris1
```

    ## # A tibble: 150 x 5
    ##    sepal_length sepal_width petal_length petal_width species
    ##           <dbl>       <dbl>        <dbl>       <dbl> <fct>  
    ##  1          5.1         3.5          1.4         0.2 setosa 
    ##  2          4.9         3            1.4         0.2 setosa 
    ##  3          4.7         3.2          1.3         0.2 setosa 
    ##  4          4.6         3.1          1.5         0.2 setosa 
    ##  5          5           3.6          1.4         0.2 setosa 
    ##  6          5.4         3.9          1.7         0.4 setosa 
    ##  7          4.6         3.4          1.4         0.3 setosa 
    ##  8          5           3.4          1.5         0.2 setosa 
    ##  9          4.4         2.9          1.4         0.2 setosa 
    ## 10          4.9         3.1          1.5         0.1 setosa 
    ## # ... with 140 more rows

# Question 2

Convert the four numerical variables from cm to mm by multiplying by 10.
Print the resulting table.

``` r
iris2 <- mutate(iris1, sepal_length = sepal_length * 10, sepal_width = sepal_width * 10, petal_length = petal_length * 10, petal_width = petal_width * 10)

iris2
```

    ## # A tibble: 150 x 5
    ##    sepal_length sepal_width petal_length petal_width species
    ##           <dbl>       <dbl>        <dbl>       <dbl> <fct>  
    ##  1           51          35           14           2 setosa 
    ##  2           49          30           14           2 setosa 
    ##  3           47          32           13           2 setosa 
    ##  4           46          31           15           2 setosa 
    ##  5           50          36           14           2 setosa 
    ##  6           54          39           17           4 setosa 
    ##  7           46          34           14           3 setosa 
    ##  8           50          34           15           2 setosa 
    ##  9           44          29           14           2 setosa 
    ## 10           49          31           15           1 setosa 
    ## # ... with 140 more rows
# Question 3

Calculate sepal area and petal area (area is equal to length multiplied
by width). Print a table with only the variables sepal area, petal area,
and species.

``` r
iris3.1 <- mutate(iris2, petal_area = petal_width * petal_length, sepal_area = sepal_width * sepal_length)

iris3.2 <- select(iris3.1, -petal_width, -petal_length, -sepal_length, -sepal_width)

iris3.2
```

    ## # A tibble: 150 x 3
    ##    species petal_area sepal_area
    ##    <fct>        <dbl>      <dbl>
    ##  1 setosa          28       1785
    ##  2 setosa          28       1470
    ##  3 setosa          26       1504
    ##  4 setosa          30       1426
    ##  5 setosa          28       1800
    ##  6 setosa          68       2106
    ##  7 setosa          42       1564
    ##  8 setosa          30       1700
    ##  9 setosa          28       1276
    ## 10 setosa          15       1519
    ## # ... with 140 more rows
…
